%YAML 1.1
%TAG !u! tag:unity3d.com,2011:
--- !u!114 &11400000
MonoBehaviour:
  m_ObjectHideFlags: 0
  m_PrefabParentObject: {fileID: 0}
  m_PrefabInternal: {fileID: 0}
  m_GameObject: {fileID: 0}
  m_Enabled: 1
  m_EditorHideFlags: 0
  m_Script: {fileID: 11500000, guid: 9448878e2e40f1a4c9f8fd2b56832b13, type: 3}
  m_Name: MasculineFemaleBaseRecipe
  m_EditorClassIdentifier: 
  recipeType: Standard
  DisplayValue: 
  compatibleRaces: []
  wardrobeRecipeThumbs: []
  wardrobeSlot: None
  Hides: []
  suppressWardrobeSlots: []
  activeWardrobeSet: []
  MeshHideAssets: []
  recipeString: '{"version":3,"packedSlotDataList":[],"slotsV2":[],"slotsV3":[{"id":"UniUMA_Masculine_Female-Eyes","scale":100,"copyIdx":-1,"overlays":[{"id":"Eye
    Overlay","colorIdx":3,"rect":[0,0,0,0]},{"id":"Default Eye Adjust","colorIdx":2,"rect":[0,0,0,0]}]},{"id":"UniUMA_Masculine_Female-Face","scale":100,"copyIdx":-1,"overlays":[{"id":"F_H_Head","colorIdx":0,"rect":[0,0,0,0]}]},{"id":"UniUMA_Masculine_Female-Feet","scale":100,"copyIdx":-1,"overlays":[{"id":"F_H_Bod","colorIdx":0,"rect":[0,0,0,0]}]},{"id":"UniUMA_Masculine_Female-Hands","scale":100,"copyIdx":2,"overlays":[]},{"id":"UniUMA_Masculine_Female-InnerMouth","scale":100,"copyIdx":-1,"overlays":[{"id":"InnerMouth","colorIdx":3,"rect":[0,0,0,0]}]},{"id":"UniUMA_Masculine_Female-Legs","scale":100,"copyIdx":2,"overlays":[]},{"id":"UniUMA_Masculine_Female-Torso","scale":100,"copyIdx":2,"overlays":[]}],"colors":[],"fColors":[{"name":"Skin","colors":[255,255,255,255,0,0,0,0,255,255,255,255,0,0,0,0,255,255,255,255,0,0,0,0]},{"name":"Hair","colors":[255,255,255,255,0,0,0,0,255,255,255,255,0,0,0,0,255,255,255,255,0,0,0,0]},{"name":"Eyes","colors":[255,255,255,255,0,0,0,0,255,255,255,255,0,0,0,0,255,255,255,255,0,0,0,0]},{"name":"-","colors":[255,255,255,255,0,0,0,0,255,255,255,255,0,0,0,0,255,255,255,255,0,0,0,0]}],"sharedColorCount":3,"race":"UniUMA-MasculineFemale","packedDna":[{"dnaType":"DynamicUMADna","dnaTypeHash":2044591455,"packedDna":"{\"bDnaAsset\":{\"instanceID\":13014},\"bDnaAssetName\":\"MasculineFemaleDNA\",\"bDnaSettings\":[{\"name\":\"MaleFemaleness\",\"value\":0},{\"name\":\"height\",\"value\":128},{\"name\":\"headSize\",\"value\":128},{\"name\":\"headWidth\",\"value\":128},{\"name\":\"neckThickness\",\"value\":128},{\"name\":\"armLength\",\"value\":128},{\"name\":\"forearmLength\",\"value\":128},{\"name\":\"armWidth\",\"value\":128},{\"name\":\"forearmWidth\",\"value\":128},{\"name\":\"handsSize\",\"value\":128},{\"name\":\"feetSize\",\"value\":128},{\"name\":\"legSeparation\",\"value\":128},{\"name\":\"upperMuscle\",\"value\":128},{\"name\":\"lowerMuscle\",\"value\":128},{\"name\":\"upperWeight\",\"value\":128},{\"name\":\"lowerWeight\",\"value\":128},{\"name\":\"legsSize\",\"value\":128},{\"name\":\"belly\",\"value\":128},{\"name\":\"waist\",\"value\":128},{\"name\":\"gluteusSize\",\"value\":128},{\"name\":\"earsSize\",\"value\":128},{\"name\":\"earsPosition\",\"value\":128},{\"name\":\"earsRotation\",\"value\":128},{\"name\":\"noseSize\",\"value\":128},{\"name\":\"noseCurve\",\"value\":128},{\"name\":\"noseWidth\",\"value\":128},{\"name\":\"noseInclination\",\"value\":128},{\"name\":\"nosePosition\",\"value\":128},{\"name\":\"nosePronounced\",\"value\":128},{\"name\":\"noseFlatten\",\"value\":128},{\"name\":\"chinSize\",\"value\":128},{\"name\":\"chinPronounced\",\"value\":128},{\"name\":\"chinPosition\",\"value\":128},{\"name\":\"mandibleSize\",\"value\":128},{\"name\":\"jawsSize\",\"value\":128},{\"name\":\"jawsPosition\",\"value\":128},{\"name\":\"cheekSize\",\"value\":128},{\"name\":\"cheekPosition\",\"value\":128},{\"name\":\"lowCheekPronounced\",\"value\":128},{\"name\":\"lowCheekPosition\",\"value\":128},{\"name\":\"foreheadSize\",\"value\":128},{\"name\":\"foreheadPosition\",\"value\":128},{\"name\":\"lipsSize\",\"value\":128},{\"name\":\"mouthSize\",\"value\":128},{\"name\":\"eyeRotation\",\"value\":128},{\"name\":\"eyeSize\",\"value\":128},{\"name\":\"breastSize\",\"value\":128},{\"name\":\"breastCleavage\",\"value\":128}]}"}],"wardrobeSet":[],"packedRecipeType":"Standard"}'
